-- Merging decision tree log ---
manifest
ADDED from /home/alunos/AndroidStudioProjects/ProjUser/app/src/main/AndroidManifest.xml:2:1-24:12
INJECTED from /home/alunos/AndroidStudioProjects/ProjUser/app/src/main/AndroidManifest.xml:2:1-24:12
INJECTED from /home/alunos/AndroidStudioProjects/ProjUser/app/src/main/AndroidManifest.xml:2:1-24:12
INJECTED from /home/alunos/AndroidStudioProjects/ProjUser/app/src/main/AndroidManifest.xml:2:1-24:12
MERGED from [com.android.support:appcompat-v7:28.0.0-alpha1] /home/alunos/.gradle/caches/transforms-1/files-1.1/appcompat-v7-28.0.0-alpha1.aar/b4e727a77b6e7f416fdcd7d706ab3a5d/AndroidManifest.xml:17:1-23:12
MERGED from [com.android.support.constraint:constraint-layout:1.1.2] /home/alunos/.gradle/caches/transforms-1/files-1.1/constraint-layout-1.1.2.aar/c6dfbfdcc1277841a07549f7ca286c4b/AndroidManifest.xml:2:1-11:12
MERGED from [com.android.support:support-fragment:28.0.0-alpha1] /home/alunos/.gradle/caches/transforms-1/files-1.1/support-fragment-28.0.0-alpha1.aar/d9e60b59122264c08cc4a1977ee7c64b/AndroidManifest.xml:17:1-23:12
MERGED from [com.android.support:animated-vector-drawable:28.0.0-alpha1] /home/alunos/.gradle/caches/transforms-1/files-1.1/animated-vector-drawable-28.0.0-alpha1.aar/ae9663a2fbcdbdc42b393c7612bb2956/AndroidManifest.xml:17:1-23:12
MERGED from [com.android.support:support-core-ui:28.0.0-alpha1] /home/alunos/.gradle/caches/transforms-1/files-1.1/support-core-ui-28.0.0-alpha1.aar/1d102b10d5b52f3a9d140161447ca9b3/AndroidManifest.xml:17:1-23:12
MERGED from [com.android.support:support-core-utils:28.0.0-alpha1] /home/alunos/.gradle/caches/transforms-1/files-1.1/support-core-utils-28.0.0-alpha1.aar/5373a8ceef308e7b03742865a1c1e01a/AndroidManifest.xml:17:1-23:12
MERGED from [com.android.support:support-vector-drawable:28.0.0-alpha1] /home/alunos/.gradle/caches/transforms-1/files-1.1/support-vector-drawable-28.0.0-alpha1.aar/f954796f2932a1c73e32e4be0264b864/AndroidManifest.xml:17:1-22:12
MERGED from [com.android.support:loader:28.0.0-alpha1] /home/alunos/.gradle/caches/transforms-1/files-1.1/loader-28.0.0-alpha1.aar/0e8c162f69a6e3ddcd409cead1dd56f3/AndroidManifest.xml:17:1-23:12
MERGED from [com.android.support:viewpager:28.0.0-alpha1] /home/alunos/.gradle/caches/transforms-1/files-1.1/viewpager-28.0.0-alpha1.aar/896f05bc0b12f995d8db549a1118c57a/AndroidManifest.xml:17:1-23:12
MERGED from [com.android.support:coordinatorlayout:28.0.0-alpha1] /home/alunos/.gradle/caches/transforms-1/files-1.1/coordinatorlayout-28.0.0-alpha1.aar/34539db20662bd8e5102bcc4b36c0844/AndroidManifest.xml:17:1-23:12
MERGED from [com.android.support:drawerlayout:28.0.0-alpha1] /home/alunos/.gradle/caches/transforms-1/files-1.1/drawerlayout-28.0.0-alpha1.aar/06006f1da61b12c6f82251b08bf4b6dd/AndroidManifest.xml:17:1-23:12
MERGED from [com.android.support:slidingpanelayout:28.0.0-alpha1] /home/alunos/.gradle/caches/transforms-1/files-1.1/slidingpanelayout-28.0.0-alpha1.aar/b59f3d05472cd1e49b16f5b4732c516f/AndroidManifest.xml:17:1-23:12
MERGED from [com.android.support:customview:28.0.0-alpha1] /home/alunos/.gradle/caches/transforms-1/files-1.1/customview-28.0.0-alpha1.aar/4bbb5489cc7cabe8e1d6d5d25db4d133/AndroidManifest.xml:17:1-23:12
MERGED from [com.android.support:swiperefreshlayout:28.0.0-alpha1] /home/alunos/.gradle/caches/transforms-1/files-1.1/swiperefreshlayout-28.0.0-alpha1.aar/384c289e8fa43307fdba4d1500a20e0e/AndroidManifest.xml:17:1-23:12
MERGED from [com.android.support:asynclayoutinflater:28.0.0-alpha1] /home/alunos/.gradle/caches/transforms-1/files-1.1/asynclayoutinflater-28.0.0-alpha1.aar/58213c00d07f863feb5ab757ccb9bae3/AndroidManifest.xml:17:1-23:12
MERGED from [com.android.support:support-compat:28.0.0-alpha1] /home/alunos/.gradle/caches/transforms-1/files-1.1/support-compat-28.0.0-alpha1.aar/cc29b3bd8126dac926d55540a2b36551/AndroidManifest.xml:17:1-23:12
MERGED from [com.android.support:documentfile:28.0.0-alpha1] /home/alunos/.gradle/caches/transforms-1/files-1.1/documentfile-28.0.0-alpha1.aar/5a901cda177769c7215379e4c4581c40/AndroidManifest.xml:17:1-23:12
MERGED from [com.android.support:localbroadcastmanager:28.0.0-alpha1] /home/alunos/.gradle/caches/transforms-1/files-1.1/localbroadcastmanager-28.0.0-alpha1.aar/797b4f01a5eb14d738437c2024d39703/AndroidManifest.xml:17:1-23:12
MERGED from [com.android.support:print:28.0.0-alpha1] /home/alunos/.gradle/caches/transforms-1/files-1.1/print-28.0.0-alpha1.aar/aa5c5360681675fa057dca1b036d4f99/AndroidManifest.xml:17:1-23:12
MERGED from [com.android.support:interpolator:28.0.0-alpha1] /home/alunos/.gradle/caches/transforms-1/files-1.1/interpolator-28.0.0-alpha1.aar/c07c7e389ae573508929fc57ba24d4ec/AndroidManifest.xml:17:1-23:12
MERGED from [com.android.support:cursoradapter:28.0.0-alpha1] /home/alunos/.gradle/caches/transforms-1/files-1.1/cursoradapter-28.0.0-alpha1.aar/584911e0d877a76bc535e96aa6e5223d/AndroidManifest.xml:17:1-23:12
MERGED from [android.arch.lifecycle:viewmodel:1.1.0] /home/alunos/.gradle/caches/transforms-1/files-1.1/viewmodel-1.1.0.aar/f3ec66aa682a625a39e7605ddf0db035/AndroidManifest.xml:17:1-22:12
MERGED from [android.arch.lifecycle:runtime:1.1.0] /home/alunos/.gradle/caches/transforms-1/files-1.1/runtime-1.1.0.aar/bc911436a874b604cfe2d94102db1e97/AndroidManifest.xml:17:1-22:12
MERGED from [android.arch.lifecycle:livedata-core:1.1.0] /home/alunos/.gradle/caches/transforms-1/files-1.1/livedata-core-1.1.0.aar/b27c5c4a5cacf56405f878edd7670ac1/AndroidManifest.xml:17:1-22:12
MERGED from [android.arch.core:runtime:1.1.0] /home/alunos/.gradle/caches/transforms-1/files-1.1/runtime-1.1.0.aar/9be0f0b65ff258d4539126a9cc6edcee/AndroidManifest.xml:17:1-22:12
INJECTED from /home/alunos/AndroidStudioProjects/ProjUser/app/src/main/AndroidManifest.xml:2:1-24:12
INJECTED from /home/alunos/AndroidStudioProjects/ProjUser/app/src/main/AndroidManifest.xml:2:1-24:12
INJECTED from /home/alunos/AndroidStudioProjects/ProjUser/app/src/main/AndroidManifest.xml:2:1-24:12
	package
		ADDED from /home/alunos/AndroidStudioProjects/ProjUser/app/src/main/AndroidManifest.xml:3:5-42
		INJECTED from /home/alunos/AndroidStudioProjects/ProjUser/app/src/main/AndroidManifest.xml
		INJECTED from /home/alunos/AndroidStudioProjects/ProjUser/app/src/main/AndroidManifest.xml
	android:versionName
		INJECTED from /home/alunos/AndroidStudioProjects/ProjUser/app/src/main/AndroidManifest.xml
		ADDED from /home/alunos/AndroidStudioProjects/ProjUser/app/src/main/AndroidManifest.xml:2:1-24:12
		INJECTED from /home/alunos/AndroidStudioProjects/ProjUser/app/src/main/AndroidManifest.xml
	android:versionCode
		INJECTED from /home/alunos/AndroidStudioProjects/ProjUser/app/src/main/AndroidManifest.xml
		ADDED from /home/alunos/AndroidStudioProjects/ProjUser/app/src/main/AndroidManifest.xml:2:1-24:12
		INJECTED from /home/alunos/AndroidStudioProjects/ProjUser/app/src/main/AndroidManifest.xml
	xmlns:android
		ADDED from /home/alunos/AndroidStudioProjects/ProjUser/app/src/main/AndroidManifest.xml:2:11-69
application
ADDED from /home/alunos/AndroidStudioProjects/ProjUser/app/src/main/AndroidManifest.xml:5:5-22:19
MERGED from [com.android.support.constraint:constraint-layout:1.1.2] /home/alunos/.gradle/caches/transforms-1/files-1.1/constraint-layout-1.1.2.aar/c6dfbfdcc1277841a07549f7ca286c4b/AndroidManifest.xml:9:5-20
MERGED from [com.android.support.constraint:constraint-layout:1.1.2] /home/alunos/.gradle/caches/transforms-1/files-1.1/constraint-layout-1.1.2.aar/c6dfbfdcc1277841a07549f7ca286c4b/AndroidManifest.xml:9:5-20
	android:supportsRtl
		ADDED from /home/alunos/AndroidStudioProjects/ProjUser/app/src/main/AndroidManifest.xml:10:9-35
	android:label
		ADDED from /home/alunos/AndroidStudioProjects/ProjUser/app/src/main/AndroidManifest.xml:8:9-41
	android:roundIcon
		ADDED from /home/alunos/AndroidStudioProjects/ProjUser/app/src/main/AndroidManifest.xml:9:9-54
	android:icon
		ADDED from /home/alunos/AndroidStudioProjects/ProjUser/app/src/main/AndroidManifest.xml:7:9-43
	android:allowBackup
		ADDED from /home/alunos/AndroidStudioProjects/ProjUser/app/src/main/AndroidManifest.xml:6:9-35
	android:theme
		ADDED from /home/alunos/AndroidStudioProjects/ProjUser/app/src/main/AndroidManifest.xml:11:9-40
activity#com.example.alunos.projuser.MainActivity
ADDED from /home/alunos/AndroidStudioProjects/ProjUser/app/src/main/AndroidManifest.xml:12:9-18:20
	android:name
		ADDED from /home/alunos/AndroidStudioProjects/ProjUser/app/src/main/AndroidManifest.xml:12:19-47
intent-filter#action:name:android.intent.action.MAIN+category:name:android.intent.category.LAUNCHER
ADDED from /home/alunos/AndroidStudioProjects/ProjUser/app/src/main/AndroidManifest.xml:13:13-17:29
action#android.intent.action.MAIN
ADDED from /home/alunos/AndroidStudioProjects/ProjUser/app/src/main/AndroidManifest.xml:14:17-69
	android:name
		ADDED from /home/alunos/AndroidStudioProjects/ProjUser/app/src/main/AndroidManifest.xml:14:25-66
category#android.intent.category.LAUNCHER
ADDED from /home/alunos/AndroidStudioProjects/ProjUser/app/src/main/AndroidManifest.xml:16:17-77
	android:name
		ADDED from /home/alunos/AndroidStudioProjects/ProjUser/app/src/main/AndroidManifest.xml:16:27-74
activity#com.example.alunos.projuser.UserActivity
ADDED from /home/alunos/AndroidStudioProjects/ProjUser/app/src/main/AndroidManifest.xml:19:9-50
	android:name
		ADDED from /home/alunos/AndroidStudioProjects/ProjUser/app/src/main/AndroidManifest.xml:19:19-47
activity#com.example.alunos.projuser.AddUserActivity
ADDED from /home/alunos/AndroidStudioProjects/ProjUser/app/src/main/AndroidManifest.xml:20:9-53
	android:name
		ADDED from /home/alunos/AndroidStudioProjects/ProjUser/app/src/main/AndroidManifest.xml:20:19-50
activity#com.example.alunos.projuser.PlaceActivity
ADDED from /home/alunos/AndroidStudioProjects/ProjUser/app/src/main/AndroidManifest.xml:21:9-60
	android:name
		ADDED from /home/alunos/AndroidStudioProjects/ProjUser/app/src/main/AndroidManifest.xml:21:19-48
uses-sdk
INJECTED from /home/alunos/AndroidStudioProjects/ProjUser/app/src/main/AndroidManifest.xml reason: use-sdk injection requested
INJECTED from /home/alunos/AndroidStudioProjects/ProjUser/app/src/main/AndroidManifest.xml
INJECTED from /home/alunos/AndroidStudioProjects/ProjUser/app/src/main/AndroidManifest.xml
MERGED from [com.android.support:appcompat-v7:28.0.0-alpha1] /home/alunos/.gradle/caches/transforms-1/files-1.1/appcompat-v7-28.0.0-alpha1.aar/b4e727a77b6e7f416fdcd7d706ab3a5d/AndroidManifest.xml:21:5-44
MERGED from [com.android.support:appcompat-v7:28.0.0-alpha1] /home/alunos/.gradle/caches/transforms-1/files-1.1/appcompat-v7-28.0.0-alpha1.aar/b4e727a77b6e7f416fdcd7d706ab3a5d/AndroidManifest.xml:21:5-44
MERGED from [com.android.support.constraint:constraint-layout:1.1.2] /home/alunos/.gradle/caches/transforms-1/files-1.1/constraint-layout-1.1.2.aar/c6dfbfdcc1277841a07549f7ca286c4b/AndroidManifest.xml:5:5-7:41
MERGED from [com.android.support.constraint:constraint-layout:1.1.2] /home/alunos/.gradle/caches/transforms-1/files-1.1/constraint-layout-1.1.2.aar/c6dfbfdcc1277841a07549f7ca286c4b/AndroidManifest.xml:5:5-7:41
MERGED from [com.android.support:support-fragment:28.0.0-alpha1] /home/alunos/.gradle/caches/transforms-1/files-1.1/support-fragment-28.0.0-alpha1.aar/d9e60b59122264c08cc4a1977ee7c64b/AndroidManifest.xml:21:5-44
MERGED from [com.android.support:support-fragment:28.0.0-alpha1] /home/alunos/.gradle/caches/transforms-1/files-1.1/support-fragment-28.0.0-alpha1.aar/d9e60b59122264c08cc4a1977ee7c64b/AndroidManifest.xml:21:5-44
MERGED from [com.android.support:animated-vector-drawable:28.0.0-alpha1] /home/alunos/.gradle/caches/transforms-1/files-1.1/animated-vector-drawable-28.0.0-alpha1.aar/ae9663a2fbcdbdc42b393c7612bb2956/AndroidManifest.xml:21:5-44
MERGED from [com.android.support:animated-vector-drawable:28.0.0-alpha1] /home/alunos/.gradle/caches/transforms-1/files-1.1/animated-vector-drawable-28.0.0-alpha1.aar/ae9663a2fbcdbdc42b393c7612bb2956/AndroidManifest.xml:21:5-44
MERGED from [com.android.support:support-core-ui:28.0.0-alpha1] /home/alunos/.gradle/caches/transforms-1/files-1.1/support-core-ui-28.0.0-alpha1.aar/1d102b10d5b52f3a9d140161447ca9b3/AndroidManifest.xml:21:5-44
MERGED from [com.android.support:support-core-ui:28.0.0-alpha1] /home/alunos/.gradle/caches/transforms-1/files-1.1/support-core-ui-28.0.0-alpha1.aar/1d102b10d5b52f3a9d140161447ca9b3/AndroidManifest.xml:21:5-44
MERGED from [com.android.support:support-core-utils:28.0.0-alpha1] /home/alunos/.gradle/caches/transforms-1/files-1.1/support-core-utils-28.0.0-alpha1.aar/5373a8ceef308e7b03742865a1c1e01a/AndroidManifest.xml:21:5-44
MERGED from [com.android.support:support-core-utils:28.0.0-alpha1] /home/alunos/.gradle/caches/transforms-1/files-1.1/support-core-utils-28.0.0-alpha1.aar/5373a8ceef308e7b03742865a1c1e01a/AndroidManifest.xml:21:5-44
MERGED from [com.android.support:support-vector-drawable:28.0.0-alpha1] /home/alunos/.gradle/caches/transforms-1/files-1.1/support-vector-drawable-28.0.0-alpha1.aar/f954796f2932a1c73e32e4be0264b864/AndroidManifest.xml:20:5-44
MERGED from [com.android.support:support-vector-drawable:28.0.0-alpha1] /home/alunos/.gradle/caches/transforms-1/files-1.1/support-vector-drawable-28.0.0-alpha1.aar/f954796f2932a1c73e32e4be0264b864/AndroidManifest.xml:20:5-44
MERGED from [com.android.support:loader:28.0.0-alpha1] /home/alunos/.gradle/caches/transforms-1/files-1.1/loader-28.0.0-alpha1.aar/0e8c162f69a6e3ddcd409cead1dd56f3/AndroidManifest.xml:21:5-44
MERGED from [com.android.support:loader:28.0.0-alpha1] /home/alunos/.gradle/caches/transforms-1/files-1.1/loader-28.0.0-alpha1.aar/0e8c162f69a6e3ddcd409cead1dd56f3/AndroidManifest.xml:21:5-44
MERGED from [com.android.support:viewpager:28.0.0-alpha1] /home/alunos/.gradle/caches/transforms-1/files-1.1/viewpager-28.0.0-alpha1.aar/896f05bc0b12f995d8db549a1118c57a/AndroidManifest.xml:21:5-44
MERGED from [com.android.support:viewpager:28.0.0-alpha1] /home/alunos/.gradle/caches/transforms-1/files-1.1/viewpager-28.0.0-alpha1.aar/896f05bc0b12f995d8db549a1118c57a/AndroidManifest.xml:21:5-44
MERGED from [com.android.support:coordinatorlayout:28.0.0-alpha1] /home/alunos/.gradle/caches/transforms-1/files-1.1/coordinatorlayout-28.0.0-alpha1.aar/34539db20662bd8e5102bcc4b36c0844/AndroidManifest.xml:21:5-44
MERGED from [com.android.support:coordinatorlayout:28.0.0-alpha1] /home/alunos/.gradle/caches/transforms-1/files-1.1/coordinatorlayout-28.0.0-alpha1.aar/34539db20662bd8e5102bcc4b36c0844/AndroidManifest.xml:21:5-44
MERGED from [com.android.support:drawerlayout:28.0.0-alpha1] /home/alunos/.gradle/caches/transforms-1/files-1.1/drawerlayout-28.0.0-alpha1.aar/06006f1da61b12c6f82251b08bf4b6dd/AndroidManifest.xml:21:5-44
MERGED from [com.android.support:drawerlayout:28.0.0-alpha1] /home/alunos/.gradle/caches/transforms-1/files-1.1/drawerlayout-28.0.0-alpha1.aar/06006f1da61b12c6f82251b08bf4b6dd/AndroidManifest.xml:21:5-44
MERGED from [com.android.support:slidingpanelayout:28.0.0-alpha1] /home/alunos/.gradle/caches/transforms-1/files-1.1/slidingpanelayout-28.0.0-alpha1.aar/b59f3d05472cd1e49b16f5b4732c516f/AndroidManifest.xml:21:5-44
MERGED from [com.android.support:slidingpanelayout:28.0.0-alpha1] /home/alunos/.gradle/caches/transforms-1/files-1.1/slidingpanelayout-28.0.0-alpha1.aar/b59f3d05472cd1e49b16f5b4732c516f/AndroidManifest.xml:21:5-44
MERGED from [com.android.support:customview:28.0.0-alpha1] /home/alunos/.gradle/caches/transforms-1/files-1.1/customview-28.0.0-alpha1.aar/4bbb5489cc7cabe8e1d6d5d25db4d133/AndroidManifest.xml:21:5-44
MERGED from [com.android.support:customview:28.0.0-alpha1] /home/alunos/.gradle/caches/transforms-1/files-1.1/customview-28.0.0-alpha1.aar/4bbb5489cc7cabe8e1d6d5d25db4d133/AndroidManifest.xml:21:5-44
MERGED from [com.android.support:swiperefreshlayout:28.0.0-alpha1] /home/alunos/.gradle/caches/transforms-1/files-1.1/swiperefreshlayout-28.0.0-alpha1.aar/384c289e8fa43307fdba4d1500a20e0e/AndroidManifest.xml:21:5-44
MERGED from [com.android.support:swiperefreshlayout:28.0.0-alpha1] /home/alunos/.gradle/caches/transforms-1/files-1.1/swiperefreshlayout-28.0.0-alpha1.aar/384c289e8fa43307fdba4d1500a20e0e/AndroidManifest.xml:21:5-44
MERGED from [com.android.support:asynclayoutinflater:28.0.0-alpha1] /home/alunos/.gradle/caches/transforms-1/files-1.1/asynclayoutinflater-28.0.0-alpha1.aar/58213c00d07f863feb5ab757ccb9bae3/AndroidManifest.xml:21:5-44
MERGED from [com.android.support:asynclayoutinflater:28.0.0-alpha1] /home/alunos/.gradle/caches/transforms-1/files-1.1/asynclayoutinflater-28.0.0-alpha1.aar/58213c00d07f863feb5ab757ccb9bae3/AndroidManifest.xml:21:5-44
MERGED from [com.android.support:support-compat:28.0.0-alpha1] /home/alunos/.gradle/caches/transforms-1/files-1.1/support-compat-28.0.0-alpha1.aar/cc29b3bd8126dac926d55540a2b36551/AndroidManifest.xml:21:5-44
MERGED from [com.android.support:support-compat:28.0.0-alpha1] /home/alunos/.gradle/caches/transforms-1/files-1.1/support-compat-28.0.0-alpha1.aar/cc29b3bd8126dac926d55540a2b36551/AndroidManifest.xml:21:5-44
MERGED from [com.android.support:documentfile:28.0.0-alpha1] /home/alunos/.gradle/caches/transforms-1/files-1.1/documentfile-28.0.0-alpha1.aar/5a901cda177769c7215379e4c4581c40/AndroidManifest.xml:21:5-44
MERGED from [com.android.support:documentfile:28.0.0-alpha1] /home/alunos/.gradle/caches/transforms-1/files-1.1/documentfile-28.0.0-alpha1.aar/5a901cda177769c7215379e4c4581c40/AndroidManifest.xml:21:5-44
MERGED from [com.android.support:localbroadcastmanager:28.0.0-alpha1] /home/alunos/.gradle/caches/transforms-1/files-1.1/localbroadcastmanager-28.0.0-alpha1.aar/797b4f01a5eb14d738437c2024d39703/AndroidManifest.xml:21:5-44
MERGED from [com.android.support:localbroadcastmanager:28.0.0-alpha1] /home/alunos/.gradle/caches/transforms-1/files-1.1/localbroadcastmanager-28.0.0-alpha1.aar/797b4f01a5eb14d738437c2024d39703/AndroidManifest.xml:21:5-44
MERGED from [com.android.support:print:28.0.0-alpha1] /home/alunos/.gradle/caches/transforms-1/files-1.1/print-28.0.0-alpha1.aar/aa5c5360681675fa057dca1b036d4f99/AndroidManifest.xml:21:5-44
MERGED from [com.android.support:print:28.0.0-alpha1] /home/alunos/.gradle/caches/transforms-1/files-1.1/print-28.0.0-alpha1.aar/aa5c5360681675fa057dca1b036d4f99/AndroidManifest.xml:21:5-44
MERGED from [com.android.support:interpolator:28.0.0-alpha1] /home/alunos/.gradle/caches/transforms-1/files-1.1/interpolator-28.0.0-alpha1.aar/c07c7e389ae573508929fc57ba24d4ec/AndroidManifest.xml:21:5-44
MERGED from [com.android.support:interpolator:28.0.0-alpha1] /home/alunos/.gradle/caches/transforms-1/files-1.1/interpolator-28.0.0-alpha1.aar/c07c7e389ae573508929fc57ba24d4ec/AndroidManifest.xml:21:5-44
MERGED from [com.android.support:cursoradapter:28.0.0-alpha1] /home/alunos/.gradle/caches/transforms-1/files-1.1/cursoradapter-28.0.0-alpha1.aar/584911e0d877a76bc535e96aa6e5223d/AndroidManifest.xml:21:5-44
MERGED from [com.android.support:cursoradapter:28.0.0-alpha1] /home/alunos/.gradle/caches/transforms-1/files-1.1/cursoradapter-28.0.0-alpha1.aar/584911e0d877a76bc535e96aa6e5223d/AndroidManifest.xml:21:5-44
MERGED from [android.arch.lifecycle:viewmodel:1.1.0] /home/alunos/.gradle/caches/transforms-1/files-1.1/viewmodel-1.1.0.aar/f3ec66aa682a625a39e7605ddf0db035/AndroidManifest.xml:20:5-44
MERGED from [android.arch.lifecycle:viewmodel:1.1.0] /home/alunos/.gradle/caches/transforms-1/files-1.1/viewmodel-1.1.0.aar/f3ec66aa682a625a39e7605ddf0db035/AndroidManifest.xml:20:5-44
MERGED from [android.arch.lifecycle:runtime:1.1.0] /home/alunos/.gradle/caches/transforms-1/files-1.1/runtime-1.1.0.aar/bc911436a874b604cfe2d94102db1e97/AndroidManifest.xml:20:5-44
MERGED from [android.arch.lifecycle:runtime:1.1.0] /home/alunos/.gradle/caches/transforms-1/files-1.1/runtime-1.1.0.aar/bc911436a874b604cfe2d94102db1e97/AndroidManifest.xml:20:5-44
MERGED from [android.arch.lifecycle:livedata-core:1.1.0] /home/alunos/.gradle/caches/transforms-1/files-1.1/livedata-core-1.1.0.aar/b27c5c4a5cacf56405f878edd7670ac1/AndroidManifest.xml:20:5-44
MERGED from [android.arch.lifecycle:livedata-core:1.1.0] /home/alunos/.gradle/caches/transforms-1/files-1.1/livedata-core-1.1.0.aar/b27c5c4a5cacf56405f878edd7670ac1/AndroidManifest.xml:20:5-44
MERGED from [android.arch.core:runtime:1.1.0] /home/alunos/.gradle/caches/transforms-1/files-1.1/runtime-1.1.0.aar/9be0f0b65ff258d4539126a9cc6edcee/AndroidManifest.xml:20:5-44
MERGED from [android.arch.core:runtime:1.1.0] /home/alunos/.gradle/caches/transforms-1/files-1.1/runtime-1.1.0.aar/9be0f0b65ff258d4539126a9cc6edcee/AndroidManifest.xml:20:5-44
INJECTED from /home/alunos/AndroidStudioProjects/ProjUser/app/src/main/AndroidManifest.xml
INJECTED from /home/alunos/AndroidStudioProjects/ProjUser/app/src/main/AndroidManifest.xml
	android:targetSdkVersion
		INJECTED from /home/alunos/AndroidStudioProjects/ProjUser/app/src/main/AndroidManifest.xml
		ADDED from /home/alunos/AndroidStudioProjects/ProjUser/app/src/main/AndroidManifest.xml
		INJECTED from /home/alunos/AndroidStudioProjects/ProjUser/app/src/main/AndroidManifest.xml
	android:minSdkVersion
		INJECTED from /home/alunos/AndroidStudioProjects/ProjUser/app/src/main/AndroidManifest.xml
		ADDED from /home/alunos/AndroidStudioProjects/ProjUser/app/src/main/AndroidManifest.xml
		INJECTED from /home/alunos/AndroidStudioProjects/ProjUser/app/src/main/AndroidManifest.xml
